{
    "status": "success",
    "message": "success",
    "data": {
        "pagination": {
            "total": 24,
            "uri": "?",
            "currentPage": 1,
            "next": 2,
            "previous": null,
            "first": 1,
            "last": 2,
            "pages": 2
        },
        "records": [
            {
                "id": 15269,
                "result": "neutral",
                "time_consuming": 21,
                "created_at": 1609476750,
                "operate": "log",
                "message": "\u8bc4\u8bba\u7f13\u5b58\u8fc1\u79fb\u6210\u529f +9"
            },
            {
                "id": 15270,
                "result": "neutral",
                "time_consuming": 36,
                "created_at": 1609476750,
                "operate": "log",
                "message": "\u6587\u7ae0\u7f13\u5b58\u8fc1\u79fb\u6210\u529f +10"
            },
            {
                "id": 15268,
                "result": "neutral",
                "time_consuming": 21,
                "created_at": 1609476320,
                "operate": "log",
                "message": "\u8bc4\u8bba\u7f13\u5b58\u8fc1\u79fb\u6210\u529f +9"
            },
            {
                "id": 15267,
                "result": "neutral",
                "time_consuming": 21,
                "created_at": 1609476290,
                "operate": "log",
                "message": "\u8bc4\u8bba\u7f13\u5b58\u8fc1\u79fb\u6210\u529f +9"
            },
            {
                "id": 15266,
                "result": "neutral",
                "time_consuming": 21,
                "created_at": 1609476204,
                "operate": "log",
                "message": "\u8bc4\u8bba\u7f13\u5b58\u8fc1\u79fb\u6210\u529f +9"
            },
            {
                "id": 15265,
                "result": "neutral",
                "time_consuming": 21,
                "created_at": 1609476182,
                "operate": "log",
                "message": "\u8bc4\u8bba\u7f13\u5b58\u8fc1\u79fb\u6210\u529f +9"
            },
            {
                "id": 15264,
                "result": "neutral",
                "time_consuming": 21,
                "created_at": 1609476137,
                "operate": "log",
                "message": "\u8bc4\u8bba\u7f13\u5b58\u8fc1\u79fb\u6210\u529f +9"
            },
            {
                "id": 14619,
                "result": "neutral",
                "time_consuming": 36,
                "created_at": 1609161924,
                "operate": "log",
                "message": "\u8bc4\u8bba\u7f13\u5b58\u8fc1\u79fb\u6210\u529f +9"
            },
            {
                "id": 14620,
                "result": "neutral",
                "time_consuming": 3,
                "created_at": 1609161924,
                "operate": "log",
                "message": "\u6587\u7ae0\u7f13\u5b58\u8fc1\u79fb\u6210\u529f +10"
            },
            {
                "id": 14617,
                "result": "neutral",
                "time_consuming": 40,
                "created_at": 1609161921,
                "operate": "log",
                "message": "\u8bc4\u8bba\u7f13\u5b58\u8fc1\u79fb\u6210\u529f +9"
            },
            {
                "id": 14618,
                "result": "neutral",
                "time_consuming": 3,
                "created_at": 1609161921,
                "operate": "log",
                "message": "\u6587\u7ae0\u7f13\u5b58\u8fc1\u79fb\u6210\u529f +10"
            },
            {
                "id": 14615,
                "result": "neutral",
                "time_consuming": 33,
                "created_at": 1609161903,
                "operate": "log",
                "message": "\u8bc4\u8bba\u7f13\u5b58\u8fc1\u79fb\u6210\u529f +9"
            },
            {
                "id": 14616,
                "result": "neutral",
                "time_consuming": 35,
                "created_at": 1609161903,
                "operate": "log",
                "message": "\u6587\u7ae0\u7f13\u5b58\u8fc1\u79fb\u6210\u529f +10"
            },
            {
                "id": 14425,
                "result": "neutral",
                "time_consuming": 27,
                "created_at": 1609131319,
                "operate": "log",
                "message": "\u8bc4\u8bba\u7f13\u5b58\u8fc1\u79fb\u6210\u529f +9"
            },
            {
                "id": 14426,
                "result": "neutral",
                "time_consuming": 3,
                "created_at": 1609131319,
                "operate": "log",
                "message": "\u6587\u7ae0\u7f13\u5b58\u8fc1\u79fb\u6210\u529f +9"
            },
            {
                "id": 14423,
                "result": "neutral",
                "time_consuming": 40,
                "created_at": 1609131313,
                "operate": "log",
                "message": "\u8bc4\u8bba\u7f13\u5b58\u8fc1\u79fb\u6210\u529f +9"
            },
            {
                "id": 14424,
                "result": "neutral",
                "time_consuming": 2,
                "created_at": 1609131313,
                "operate": "log",
                "message": "\u6587\u7ae0\u7f13\u5b58\u8fc1\u79fb\u6210\u529f +9"
            },
            {
                "id": 14422,
                "result": "neutral",
                "time_consuming": 26,
                "created_at": 1609131309,
                "operate": "log",
                "message": "\u6587\u7ae0\u7f13\u5b58\u8fc1\u79fb\u6210\u529f +9"
            },
            {
                "id": 14421,
                "result": "neutral",
                "time_consuming": 434,
                "created_at": 1609131308,
                "operate": "log",
                "message": "\u8bc4\u8bba\u7f13\u5b58\u8fc1\u79fb\u6210\u529f +9"
            },
            {
                "id": 393,
                "result": "success",
                "time_consuming": 593,
                "created_at": 1605107077,
                "operate": "register",
                "message": "\u7528\u6237\u6ce8\u518c"
            }
        ]
    }
}
