{
    "status": "success",
    "message": "success",
    "data": {
        "pagination": {
            "total": 16294,
            "uri": "?",
            "currentPage": 1,
            "next": 2,
            "previous": null,
            "first": 1,
            "last": 10,
            "pages": 815
        },
        "records": [
            {
                "id": 16318,
                "ip": "172.18.0.1",
                "port": "",
                "location": "\u5c40\u57df\u7f51-",
                "result": "success",
                "time_consuming": 127,
                "user_id": 2,
                "created_at": 1609664376,
                "operate": "logout",
                "message": "\u767b\u51fa\u6210\u529f",
                "user": {
                    "id": 2,
                    "name": "\u4f60\u597d\u50cf\u5f88\u597d\u5403",
                    "avatar": "\/image\/avatar\/2020-11-08\/550.70846900165fa7a810acf834.76505998.jpg"
                }
            },
            {
                "id": 16317,
                "ip": "172.18.0.1",
                "port": "",
                "location": "\u5c40\u57df\u7f51-",
                "result": "success",
                "time_consuming": 250,
                "user_id": 2,
                "created_at": 1609664370,
                "operate": "login",
                "message": "\u767b\u9646\u6210\u529f",
                "user": {
                    "id": 2,
                    "name": "\u4f60\u597d\u50cf\u5f88\u597d\u5403",
                    "avatar": "\/image\/avatar\/2020-11-08\/550.70846900165fa7a810acf834.76505998.jpg"
                }
            },
            {
                "id": 16316,
                "ip": "172.18.0.1",
                "port": "",
                "location": "\u5c40\u57df\u7f51-",
                "result": "success",
                "time_consuming": 149,
                "user_id": 2,
                "created_at": 1609664351,
                "operate": "logout",
                "message": "\u767b\u51fa\u6210\u529f",
                "user": {
                    "id": 2,
                    "name": "\u4f60\u597d\u50cf\u5f88\u597d\u5403",
                    "avatar": "\/image\/avatar\/2020-11-08\/550.70846900165fa7a810acf834.76505998.jpg"
                }
            },
            {
                "id": 16313,
                "ip": "172.18.0.1",
                "port": "",
                "location": "\u5c40\u57df\u7f51-",
                "result": "success",
                "time_consuming": 806,
                "user_id": 3,
                "created_at": 1609664225,
                "operate": "login",
                "message": "\u767b\u9646\u6210\u529f",
                "user": {
                    "id": 3,
                    "name": "\u5915\u843d",
                    "avatar": "\/image\/avatar\/2020-10-29\/95a5c0e7e08e4873cefa7b3962a66884"
                }
            },
            {
                "id": 16314,
                "ip": "172.18.0.1",
                "port": "",
                "location": "\u5c40\u57df\u7f51-",
                "result": "success",
                "time_consuming": 75,
                "user_id": 3,
                "created_at": 1609664225,
                "operate": "login",
                "message": "\u767b\u9646\u6210\u529f",
                "user": {
                    "id": 3,
                    "name": "\u5915\u843d",
                    "avatar": "\/image\/avatar\/2020-10-29\/95a5c0e7e08e4873cefa7b3962a66884"
                }
            },
            {
                "id": 16315,
                "ip": "172.18.0.1",
                "port": "",
                "location": "\u5c40\u57df\u7f51-",
                "result": "success",
                "time_consuming": 260,
                "user_id": 3,
                "created_at": 1609664225,
                "operate": "logout",
                "message": "\u767b\u51fa\u6210\u529f",
                "user": {
                    "id": 3,
                    "name": "\u5915\u843d",
                    "avatar": "\/image\/avatar\/2020-10-29\/95a5c0e7e08e4873cefa7b3962a66884"
                }
            },
            {
                "id": 16312,
                "ip": "172.18.0.1",
                "port": "",
                "location": "\u5c40\u57df\u7f51-",
                "result": "success",
                "time_consuming": 203,
                "user_id": 3,
                "created_at": 1609664224,
                "operate": "login",
                "message": "\u767b\u9646\u6210\u529f",
                "user": {
                    "id": 3,
                    "name": "\u5915\u843d",
                    "avatar": "\/image\/avatar\/2020-10-29\/95a5c0e7e08e4873cefa7b3962a66884"
                }
            },
            {
                "id": 16311,
                "ip": "172.18.0.1",
                "port": "",
                "location": "\u5c40\u57df\u7f51-",
                "result": "success",
                "time_consuming": 72,
                "user_id": 3,
                "created_at": 1609664203,
                "operate": "login",
                "message": "\u767b\u9646\u6210\u529f",
                "user": {
                    "id": 3,
                    "name": "\u5915\u843d",
                    "avatar": "\/image\/avatar\/2020-10-29\/95a5c0e7e08e4873cefa7b3962a66884"
                }
            },
            {
                "id": 16310,
                "ip": "172.18.0.1",
                "port": "",
                "location": "\u5c40\u57df\u7f51-",
                "result": "success",
                "time_consuming": 79,
                "user_id": 3,
                "created_at": 1609664202,
                "operate": "login",
                "message": "\u767b\u9646\u6210\u529f",
                "user": {
                    "id": 3,
                    "name": "\u5915\u843d",
                    "avatar": "\/image\/avatar\/2020-10-29\/95a5c0e7e08e4873cefa7b3962a66884"
                }
            },
            {
                "id": 16309,
                "ip": "172.18.0.1",
                "port": "",
                "location": "\u5c40\u57df\u7f51-",
                "result": "success",
                "time_consuming": 73,
                "user_id": 3,
                "created_at": 1609664196,
                "operate": "login",
                "message": "\u767b\u9646\u6210\u529f",
                "user": {
                    "id": 3,
                    "name": "\u5915\u843d",
                    "avatar": "\/image\/avatar\/2020-10-29\/95a5c0e7e08e4873cefa7b3962a66884"
                }
            },
            {
                "id": 16308,
                "ip": "172.18.0.1",
                "port": "",
                "location": "\u5c40\u57df\u7f51-",
                "result": "success",
                "time_consuming": 79,
                "user_id": 3,
                "created_at": 1609664195,
                "operate": "login",
                "message": "\u767b\u9646\u6210\u529f",
                "user": {
                    "id": 3,
                    "name": "\u5915\u843d",
                    "avatar": "\/image\/avatar\/2020-10-29\/95a5c0e7e08e4873cefa7b3962a66884"
                }
            },
            {
                "id": 16307,
                "ip": "172.18.0.1",
                "port": "",
                "location": "\u5c40\u57df\u7f51-",
                "result": "success",
                "time_consuming": 78,
                "user_id": 2,
                "created_at": 1609664153,
                "operate": "login",
                "message": "\u767b\u9646\u6210\u529f",
                "user": {
                    "id": 2,
                    "name": "\u4f60\u597d\u50cf\u5f88\u597d\u5403",
                    "avatar": "\/image\/avatar\/2020-11-08\/550.70846900165fa7a810acf834.76505998.jpg"
                }
            },
            {
                "id": 16306,
                "ip": "172.18.0.1",
                "port": "",
                "location": "\u5c40\u57df\u7f51-",
                "result": "success",
                "time_consuming": 94,
                "user_id": 2,
                "created_at": 1609664151,
                "operate": "login",
                "message": "\u767b\u9646\u6210\u529f",
                "user": {
                    "id": 2,
                    "name": "\u4f60\u597d\u50cf\u5f88\u597d\u5403",
                    "avatar": "\/image\/avatar\/2020-11-08\/550.70846900165fa7a810acf834.76505998.jpg"
                }
            },
            {
                "id": 16305,
                "ip": "172.18.0.1",
                "port": "",
                "location": "\u5c40\u57df\u7f51-",
                "result": "success",
                "time_consuming": 94,
                "user_id": 2,
                "created_at": 1609664150,
                "operate": "login",
                "message": "\u767b\u9646\u6210\u529f",
                "user": {
                    "id": 2,
                    "name": "\u4f60\u597d\u50cf\u5f88\u597d\u5403",
                    "avatar": "\/image\/avatar\/2020-11-08\/550.70846900165fa7a810acf834.76505998.jpg"
                }
            },
            {
                "id": 16304,
                "ip": "172.18.0.1",
                "port": "",
                "location": "\u5c40\u57df\u7f51-",
                "result": "success",
                "time_consuming": 84,
                "user_id": 2,
                "created_at": 1609664149,
                "operate": "login",
                "message": "\u767b\u9646\u6210\u529f",
                "user": {
                    "id": 2,
                    "name": "\u4f60\u597d\u50cf\u5f88\u597d\u5403",
                    "avatar": "\/image\/avatar\/2020-11-08\/550.70846900165fa7a810acf834.76505998.jpg"
                }
            },
            {
                "id": 16303,
                "ip": "172.18.0.1",
                "port": "",
                "location": "\u5c40\u57df\u7f51-",
                "result": "success",
                "time_consuming": 79,
                "user_id": 2,
                "created_at": 1609663922,
                "operate": "login",
                "message": "\u767b\u9646\u6210\u529f",
                "user": {
                    "id": 2,
                    "name": "\u4f60\u597d\u50cf\u5f88\u597d\u5403",
                    "avatar": "\/image\/avatar\/2020-11-08\/550.70846900165fa7a810acf834.76505998.jpg"
                }
            },
            {
                "id": 16302,
                "ip": "172.18.0.1",
                "port": "",
                "location": "\u5c40\u57df\u7f51-",
                "result": "success",
                "time_consuming": 79,
                "user_id": 2,
                "created_at": 1609662980,
                "operate": "login",
                "message": "\u767b\u9646\u6210\u529f",
                "user": {
                    "id": 2,
                    "name": "\u4f60\u597d\u50cf\u5f88\u597d\u5403",
                    "avatar": "\/image\/avatar\/2020-11-08\/550.70846900165fa7a810acf834.76505998.jpg"
                }
            },
            {
                "id": 16301,
                "ip": "172.18.0.1",
                "port": "",
                "location": "\u5c40\u57df\u7f51-",
                "result": "success",
                "time_consuming": 73,
                "user_id": 2,
                "created_at": 1609662978,
                "operate": "login",
                "message": "\u767b\u9646\u6210\u529f",
                "user": {
                    "id": 2,
                    "name": "\u4f60\u597d\u50cf\u5f88\u597d\u5403",
                    "avatar": "\/image\/avatar\/2020-11-08\/550.70846900165fa7a810acf834.76505998.jpg"
                }
            },
            {
                "id": 16300,
                "ip": "172.18.0.1",
                "port": "",
                "location": "\u5c40\u57df\u7f51-",
                "result": "success",
                "time_consuming": 76,
                "user_id": 2,
                "created_at": 1609662977,
                "operate": "login",
                "message": "\u767b\u9646\u6210\u529f",
                "user": {
                    "id": 2,
                    "name": "\u4f60\u597d\u50cf\u5f88\u597d\u5403",
                    "avatar": "\/image\/avatar\/2020-11-08\/550.70846900165fa7a810acf834.76505998.jpg"
                }
            },
            {
                "id": 16299,
                "ip": "172.18.0.1",
                "port": "",
                "location": "\u5c40\u57df\u7f51-",
                "result": "success",
                "time_consuming": 81,
                "user_id": 2,
                "created_at": 1609662976,
                "operate": "login",
                "message": "\u767b\u9646\u6210\u529f",
                "user": {
                    "id": 2,
                    "name": "\u4f60\u597d\u50cf\u5f88\u597d\u5403",
                    "avatar": "\/image\/avatar\/2020-11-08\/550.70846900165fa7a810acf834.76505998.jpg"
                }
            }
        ]
    }
}
