{
    "status": "success",
    "message": "success",
    "data": {
        "pagination": {
            "total": 540,
            "uri": "?",
            "currentPage": 1,
            "next": 2,
            "previous": null,
            "first": 1,
            "last": 10,
            "pages": 27
        },
        "records": [
            {
                "id": 971,
                "word": "5YyF5LqM5aW2c3M=",
                "category_id": 12,
                "editAble": 0
            },
            {
                "id": 972,
                "word": "5pq05bmy",
                "category_id": 12,
                "editAble": 0
            },
            {
                "id": 979,
                "word": "6KKr5o+S",
                "category_id": 12,
                "editAble": 0
            },
            {
                "id": 980,
                "word": "6KKr5bmy",
                "category_id": 12,
                "editAble": 0
            },
            {
                "id": 981,
                "word": "6YC85aW4",
                "category_id": 12,
                "editAble": 0
            },
            {
                "id": 982,
                "word": "5LuT5LqV56m6",
                "category_id": 12,
                "editAble": 0
            },
            {
                "id": 983,
                "word": "5o+S5pq0",
                "category_id": 12,
                "editAble": 0
            },
            {
                "id": 984,
                "word": "5pON6YC8",
                "category_id": 12,
                "editAble": 0
            },
            {
                "id": 985,
                "word": "5pON6buR",
                "category_id": 12,
                "editAble": 0
            },
            {
                "id": 986,
                "word": "5pON54OC",
                "category_id": 12,
                "editAble": 0
            },
            {
                "id": 987,
                "word": "P+S9oA==",
                "category_id": 12,
                "editAble": 0
            },
            {
                "id": 988,
                "word": "P+atuw==",
                "category_id": 12,
                "editAble": 0
            },
            {
                "id": 989,
                "word": "5pON5q27",
                "category_id": 12,
                "editAble": 0
            },
            {
                "id": 991,
                "word": "5Y6V5aW0",
                "category_id": 12,
                "editAble": 0
            },
            {
                "id": 992,
                "word": "5o+S5q+U",
                "category_id": 12,
                "editAble": 0
            },
            {
                "id": 993,
                "word": "5o+SYg==",
                "category_id": 12,
                "editAble": 0
            },
            {
                "id": 994,
                "word": "5o+S6YC8",
                "category_id": 12,
                "editAble": 0
            },
            {
                "id": 995,
                "word": "5o+S6L+b",
                "category_id": 12,
                "editAble": 0
            },
            {
                "id": 996,
                "word": "5o+S5L2g",
                "category_id": 12,
                "editAble": 0
            },
            {
                "id": 997,
                "word": "5o+S5oiR",
                "category_id": 12,
                "editAble": 0
            }
        ],
        "categoryList": [
            {
                "id": 0,
                "name": "\u6240\u6709\u5206\u7c7b"
            },
            {
                "id": 16,
                "name": "\u4e0d\u9ad8\u5174"
            },
            {
                "id": 12,
                "name": "\u5e7f\u544a"
            },
            {
                "id": 11,
                "name": "\u653f\u6cbb"
            },
            {
                "id": 5,
                "name": "\u654f\u611f\u8bcd"
            },
            {
                "id": 14,
                "name": "\u8272\u60c5"
            },
            {
                "id": 10,
                "name": "\u8d2a\u8150\u8bcd\u6c47"
            },
            {
                "id": 13,
                "name": "\u975e\u6cd5\u94fe\u63a5"
            }
        ],
        "categoryId": 0
    }
}