{
    "status": "success",
    "message": "success",
    "data": {
        "pagination": {
            "total": 18125,
            "uri": "?",
            "currentPage": 1,
            "next": 2,
            "previous": null,
            "first": 1,
            "last": 10,
            "pages": 907
        },
        "records": [
            {
                "id": 18164,
                "ip": "172.18.0.1",
                "port": "",
                "location": "\u5c40\u57df\u7f51-",
                "result": "success",
                "time_consuming": 186,
                "user_id": 2,
                "created_at": 1618663018,
                "operate": "create",
                "message": "\u8bc4\u8bba\u6210\u529f",
                "user": {
                    "id": 2,
                    "name": "\u4e0d\u9ad8\u5174",
                    "avatar": "\/image\/avatar\/2021-01-04\/792.071792001615ff318151187d1.11539176.jpg"
                }
            },
            {
                "id": 18163,
                "ip": "172.18.0.1",
                "port": "",
                "location": "\u5c40\u57df\u7f51-",
                "result": "success",
                "time_consuming": 184,
                "user_id": 2,
                "created_at": 1618663013,
                "operate": "create",
                "message": "\u8bc4\u8bba\u6210\u529f",
                "user": {
                    "id": 2,
                    "name": "\u4e0d\u9ad8\u5174",
                    "avatar": "\/image\/avatar\/2021-01-04\/792.071792001615ff318151187d1.11539176.jpg"
                }
            }
        ]
    }
}